…
# Question 2

 Write a function that computes the final tibble needed for plotting a metagene. Explain in your interpretation why writing a function is useful for this task.
 
 The function should take three arguments.
  - `genes_bed` is a bed tibble that contains positions of human genes. (`chrom`, `start`, `end`, `name`, `score`, `strand`)
  - `chipseq_bedgraph` is a bedgraph tibble (`chrom`, `start`, `end`, `value`) 
  - `genome_bed` is a genome tibble (`chrom`, `size`)
  
Run your function using the bed tibbles provided above as input arguments.

Your output tibble should look like this:

```r
#> # A tibble: 201 x 2
#>    .win_id total_coverage
#>      <int>          <dbl>
#>  1       1       46.97059
#>  2       2       56.48529
#>  3       3       47.42667
#>  4       4       53.97297
#>  5       5       48.36842
#>  6       6       56.05333
#>  7       7       47.08861
#>  8       8       55.15190
#>  9       9       47.33750
#> 10      10       55.94937
#> # ... with 191 more rows
```
…
